ᱚ	[O]
ᱛ	[Ot]
ᱜ	[Oh]
ᱝ	[Ong]
ᱞ	[Ol]
ᱟ	[Aa]
ᱠ	[Aak]
ᱡ	[Aaj]
ᱢ	[Aam]
ᱣ	[Aaw]
ᱤ	[le]
ᱥ	[Ish]
ᱦ	[Ihh]
ᱧ	[Inj]
ᱨ	[Ir]
ᱩ	[U]
ᱪ	[Uch]
ᱫ	[Ud]
ᱬ	[Unn]
ᱭ	[Uy]
ᱮ	[Ae]
ᱯ	[Aep]
ᱰ	[Aed]
ᱱ	[Aen]
ᱲ	[Ael]
ᱳ	[Oa]
ᱴ	[Oat]
ᱵ	[Oab]
ᱶ	[Oun]
ᱷ	[Ohh]
