U+ABC0	ꯀ 
U+ABC1	ꯁ 
U+ABC2	ꯂ 
U+ABC3	ꯃ 
U+ABC4	ꯄ 
U+ABC5	ꯅ 
U+ABC6	ꯆ 
U+ABC7	ꯇ 
U+ABC8	ꯈ 
U+ABC9	ꯉ 
U+ABCA	ꯊ 
U+ABCB	ꯋ 
U+ABCC	ꯌ 
U+ABCD	ꯍ 
U+ABCE	ꯎ 
U+ABCF	ꯏ 
U+ABD0	ꯐ 
U+ABD1	ꯑ 
U+ABD2	ꯒ
U+ABD3	ꯓ 
U+ABD4	ꯔ 
U+ABD5	ꯕ 
U+ABD6	ꯖ 
U+ABD7	ꯗ 
U+ABD8	ꯘ 
U+ABD9	ꯙ 
U+ABDA	ꯚ 