Latin alphabet for Bodo
A a	[a/ɔ]
B b	[b]
C c	[s]	
D d	[d/ɖ]	
E e	[e]
G g	[ɡ]
H h	[ɦ]
I i	[i]
K k	[k]
Kh kh	[kʰ]
L l	[l]
M m	[m]
N n	[n]
Ṅ ṅ	[ŋ]
O o	[o]
Ŏ ŏ	[ɯ]
P p	[p]
Ph ph	[pʰ]
R r	[ɾ]	
S s	[s]	
T t	[ʈ/t]	
Th th	[ʈʰ/tʰ]	
U u	[u]	
W w 	[w]	
Y y	[j]	
Z z	[z]

Other letters
à/ô	[ɔ]	
á/ā	[aː]	
í/ī	[iː]	
ê/è	[e]	
é/ē	[eː]	
å	[ɯ]	
ō	[oː]	
ù/ŭ	[u]	
ú/ū	[uː]
ṛ	[ɽ]

Devanagri
Vowels & diacritics 
अ	’	[o]
आ	ा	[a]	
इ	ि	[i]	
ई	ी	[i]	
उ	ु	[u]	
ऊ	ू	[u]	
ऋ	ृ	[ri]	
ए	े	[e]	
ऐ	ै	[oi/ɯi]
ओ	ो	[ɯ]	
औ	ौ	[ɯu]	
	ं	[ŋ]	
	ः	[h]	
	ँ	[ ~ ]

Consonants
क	[kɔ]	
ख	[kʰɔ]	
ग	[ɡɔ]	
घ	[ɡɦɔ]	
ङ	[ŋɔ]	
च	[sɔ]	
छ	[sʰɔ]	
ज	[zɔ]	
ट	[ʈɔ]
ठ	[ʈʰɔ]	
ड	[ɖɔ]	
त	[tɔ]	
थ	[tʰɔ]	
द	[dɔ]		
ध	[dɦɔ]	
न	[nɔ]	
प	[pɔ]	
फ	[pʰɔ]
ब	[bɔ]	
भ	[bɦɔ]	
म	[mɔ]	
य	[jɔ]	
र	[ɾɔ]	
ल	[lɔ]	
व	[wɔ]	
श	[sɔ]	
स	[sɔ]
ह	[ɦɔ]	
त्	[t]	
ड़	[ɽɔ]	
ढ़	[ɽʰɔ]	
क्ष	[kʰjɔ]

Numerals
०	लातिख’	[0]
१	से	[1]
२	नै	[2]
३	थाम	[3]
४	ब्रै	[4]
५	बा	[5]
६	द’	[6]
७	स्नि	[7]
८	दाइन	[8]
९	गु	[9]
१०	जि	[10]

Bengali
Vowels & diacritics
অ		[o]
আ	া	[a]	
ই	ি	[i]	
ঈ	ী	[i]	
উ	ু	[u]	
ঊ	ূ	[u]	
ঋ	ৃ	[ri]	
এ	ে	[e]	
ঐ	ৈ	[oi/ɯi]
ও	ো	[o]	
ঔ	ৌ	[ɯu]	
অৗ	ৗ	[ɯ]	
	’	[’]

Consonants
ক	[kɔ]	
খ	[kʰɔ]	
গ	[ɡɔ]	
ঘ	[ɡɦɔ]	
ঙ	[ŋɔ]	
চ	[sɔ]	
ছ	[sʰɔ]	
জ	[zɔ]	
ট	[ʈɔ]
ঠ	[ʈʰɔ]	
ড	[ɖɔ]	
ত	[tɔ]	
থ	[tʰɔ]	
দ	[dɔ]	
ধ	[dɦɔ]	
ন	[nɔ]	
প	[pɔ]	
ফ	[pʰɔ]
ব	[bɔ]	
ভ	[bɦɔ]	
ম	[mɔ]	
য়	[jɔ]	
র/ৰ	[ɾɔ]	
ল	[lɔ]	
ৱ	[wɔ]	
শ	[sɔ]	
স	[sɔ]
হ	[ɦɔ]	
ৎ	[t]	
ড়	[ɽɔ]	
ঢ়	[ɽʰɔ]	
ক্ষ	[kʰjɔ]	
ং	[ŋ]	
ঃ	[h]	
ঁ	[~]

Numerals
০	লাথিখো	
১	সে	
২	নৈ	
৩	থাম	
৪	ব্রৈ	
৫	বা	
৬	দো	
৭	স্নি	
৮	দাইন
৯	গু	
১০	জি